<?xml version="1.0" standalone="no"?>
<!DOCTYPE svg PUBLIC "-//W3C//DTD SVG 1.1//EN" "http://www.w3.org/Graphics/SVG/1.1/DTD/svg11.dtd">
<svg xmlns="http://www.w3.org/2000/svg">
<metadata>Generated by Fontastic.me</metadata>
<defs>
<font id="icons" horiz-adv-x="512">
<font-face font-family="icons" units-per-em="512" ascent="480" descent="-32"/>
<missing-glyph horiz-adv-x="512" />

<glyph glyph-name="menu-anciano" unicode="&#97;" d="M275 266c-9 0-16-7-18-15l-3 0c-2 8-10 15-19 15-9 0-18-8-19-17 0-1 0-3 0-4 1-10 9-18 19-18 9 0 17 6 19 15l3 0c2-9 9-15 18-15 11 0 19 8 20 18 0 1 0 3 0 4-2 9-10 17-20 17z m-40-31c-6 0-10 5-10 11 0 6 4 11 10 11 6 0 11-5 11-11 0-6-5-11-11-11z m40 0c-6 0-10 5-10 11 0 6 4 11 10 11 6 0 11-5 11-11 0-6-5-11-11-11z m46 21c0 5-1 10-2 15 0 1 0 3-1 5 0 3-1 7-1 10 0 1 0 1-1 1 0 4-1 7-2 9-3 6-7 12-12 17-6 5-14 10-23 12-7 3-15 4-24 4-61 0-64-47-66-70l0-3c-5-2-7-6-7-11 0-5 2-10 7-12 0-1 0-3 0-4 0-1 0-2 0-2 1-4 2-7 3-11 2-8 6-16 10-23 6-8 14-15 22-19 6-3 13-5 20-6 3-1 7-1 11-1 13 0 26 4 36 10 8 6 15 13 20 21 4 7 7 15 9 23 1 4 1 8 2 12 4 2 7 7 7 12 0 5-3 10-8 11z m-12 25c1-6 2-13 3-18l0-1c0-1 0-3 0-4 0-1 0-1 0-1 0-1 0-1 0-1 0-1-1-1-2-1-1 7-2 14-3 22l0 3c0 0 0 1 1 1 0 0 0 0 1 0z m-111-23c1 7 1 15 3 23 1 0 1 0 2 0 0 0 0-1 0-1l0-3c-1-8-2-15-3-23-1 1-1 1-2 2z m119-17c-2 0-4-2-4-4-3-55-42-61-58-61-16 0-54 6-58 61 0 2-2 4-4 4-1 1-2 2-2 4 0 2 1 3 2 3 0 0 0 0 1 0 3-2 6-3 11-3 2 0 4 2 4 5 0 8 1 16 3 26l0 4c0 0 0 0 0 1 0 2-1 5-4 7-1 1-2 2-4 2 8 20 24 30 51 30 8 0 18-1 26-4 3-2 6-3 8-5 3-1 4-2 6-4 3-2 5-5 7-8 1-2 2-4 3-5 1-1 1-3 2-4-2 0-4-1-5-2-3-2-4-5-4-7 0-1 0-1 0-1l0-4c2-10 3-18 3-26 0-3 2-5 5-5 4 0 8 1 11 3 0 0 0 0 0 0 2 0 3-1 3-3 0-2-1-4-3-4z m-41-34c-1 0-2 0-3 0-12-6-24-6-35 0-2 1-5 0-6-3-1-2 0-5 2-6 7-3 14-4 21-4 8 0 15 1 22 4 2 1 3 4 2 6-1 1-2 2-3 3z"/>
<glyph glyph-name="menu-bombilla" unicode="&#98;" d="M266 154l-21 0c-7 0-13 6-13 13l0 2-2 0c-3 0-5 2-5 5l0 22c0 8-6 18-12 29-8 13-16 29-16 47 0 32 26 59 58 59 33 0 59-27 59-59 0-18-9-34-17-47-6-11-11-21-11-29l0-22c0-3-3-5-6-5l-2 0 0-2c0-7-5-13-12-13z m-23 15l0-2c0-1 1-2 2-2l21 0c1 0 2 1 2 2l0 2z m30 10l2 0 0 17c0 0 0 1 0 2l-40 0c0-1 0-2 0-2l0-17z m-40 29l45 0c2 7 6 14 11 22 7 13 15 27 15 42 0 27-22 49-49 49-26 0-48-22-48-49 0-15 8-29 15-42 5-8 9-15 11-22z m4 26c-1 0-3 1-4 2l-2 4c-6 11-13 22-13 32 0 19 14 35 33 37 3 0 6-2 6-4 0-3-2-6-5-6-14-2-24-13-24-27 0-7 7-18 12-27l2-3c1-3 0-6-2-7-1-1-2-1-3-1z"/>
<glyph glyph-name="menu-btx" unicode="&#99;" d="M255 213c-8 0-15 7-15 15 0 8 7 15 15 15 9 0 16-7 16-15 0-8-7-15-16-15z m0 20c-2 0-4-2-4-5 0-3 2-5 4-5 3 0 5 2 5 5 0 3-2 5-5 5z m0-37c-21 0-38 17-38 38 0 21 17 38 38 38 22 0 39-17 39-38 0-21-17-38-39-38z m0 66c-15 0-28-12-28-28 0-15 13-27 28-27 16 0 29 12 29 27 0 16-13 28-29 28z m0-81c-30 0-55 26-55 57 0 32 25 58 55 58 31 0 56-26 56-58 0-31-25-57-56-57z m0 105c-25 0-45-21-45-47 0-27 20-48 45-48 25 0 46 21 46 48 0 26-21 47-46 47z m0-122c-41 0-75 35-75 79 0 43 34 78 75 78 42 0 76-35 76-78 0-44-34-79-76-79z m0 147c-36 0-65-31-65-68 0-38 29-69 65-69 37 0 66 31 66 69 0 37-29 68-66 68z"/>
<glyph glyph-name="menu-candado" unicode="&#100;" d="M248 235c-6 0-10-5-10-10 0-4 2-8 6-10l0-16 8 0 0 17c3 2 6 5 6 9 0 5-5 10-10 10z m41 42l0 20c0 23-18 42-41 42-23 0-42-19-42-42l0-20c-10-4-17-15-17-26l0-54c0-15 12-28 27-28l63 0c15 0 28 13 28 28l0 54c0 11-7 21-18 26z m-70 20c0 16 13 29 29 29 15 0 28-13 28-29l0-18-57 0z m75-100c0-8-7-14-15-14l-63 0c-8 0-14 6-14 14l0 54c0 8 6 14 14 14l63 0c8 0 15-6 15-14l0-54z"/>
<glyph glyph-name="menu-cerebro" unicode="&#101;" d="M301 164l-3 2c-7 5-28 19-32 29l-2 4-10-5 1-3c7-15 34-32 37-34l3-2z m-6 17c7 0 15 2 19 5 3 3 4 6 3 9l-3-1c0-2 0-4-2-5-5-5-20-5-26-4l-1-3c2 0 6-1 10-1m22 3c4 3 5 7 4 12l-1 3-11-2 1-3c0-1 0-2 0-2-4-4-17-4-23-3l-4 1-3-10 4-1c3-1 7-2 11-2 6 0 16 1 22 7z m0 11c7 0 16 1 23 6 8 6 12 14 12 24-1 9-5 16-12 20-12 8-32 5-38 3-9-3-17 1-20 3l-2-3c7-5 16-6 23-3 5 2 24 4 36-3 6-4 9-9 9-17 1-9-3-16-10-21-10-7-26-7-32-4l-1-4c3-1 7-1 12-1m26 3c9 6 13 16 12 27 0 10-5 18-13 23-13 9-35 6-42 3-7-2-14 2-16 3l-3 2-7-9 4-2c8-5 18-7 26-4 4 2 22 4 33-2 4-3 7-8 7-14 1-8-2-14-8-18-9-6-23-6-28-4l-4 1-4-10 4-1c3-1 8-2 13-2 9 0 19 2 26 7z m-33 48l0 3c-3 1-6 2-8 6-1 3 0 7 4 11l-2 2c-6-7-6-12-5-15 2-4 7-7 11-7m4 7l-3 0c-2 0-5 2-5 3-1 2 0 4 3 8l3 2-8 8-3-3c-8-8-7-15-5-19 2-6 8-9 14-10l3 0z m37-24c4 10 2 21-5 28-5 6-13 8-21 6l1-4c9 3 15-1 18-4 5-6 7-17 4-25z m4-1c4 11 2 24-6 32-6 6-15 9-25 6l-4-1 3-10 4 1c6 1 11 0 14-4 5-5 6-14 4-21l-2-3 11-4z m-19 33l4 0c0 7-6 15-16 22-15 10-34 13-50 7l1-3c15 5 33 3 47-7 9-6 14-13 14-19m7 0c0 8-6 17-17 25-16 11-36 14-54 7l-3-1 4-10 3 1c14 5 30 3 44-6 8-6 12-12 12-16l0-3 11 0z m-53 30l3 2c-4 6-13 11-22 13-10 1-21-2-29-9l2-3c10 9 20 9 27 8 8-1 16-5 19-11m8 0l-2 4c-4 7-14 13-24 15-12 1-23-2-33-11l-3-2 8-8 3 2c8 8 17 8 23 8 7-1 14-5 17-10l2-3z m-98-23c3 17 11 28 22 30 10 3 22-2 29-11l2 2c-8 10-20 15-31 12-8-1-21-8-25-32z m4 0c3 15 10 24 19 27 9 1 18-2 25-10l2-3 9 6-3 3c-8 12-23 17-35 14-8-2-23-9-28-35l-1-4 11-2z m3-64c5 0 11 0 17 1l0 3c-23-3-41 0-51 8-7 5-11 13-12 23-1 10 3 20 9 27 5 5 15 12 31 12 0 0 0 0 1 0l0 3c-18 0-29-7-34-13-8-8-11-19-10-29 1-12 5-20 13-26 8-6 20-9 36-9m18-3l4 1-2 11-4-1c-22-3-38 0-48 7-6 5-9 11-10 21-1 8 2 17 8 23 5 5 13 11 28 11l5 0 0 11-4 0c-19 0-31-8-37-14-8-9-12-21-11-32 1-13 6-22 15-29 9-6 21-10 38-10 5 0 11 0 18 1z m28-10c13 0 26 5 33 14 8 10 20 14 33 11l0 3c-13 3-27-1-36-12-6-8-18-12-30-12-11 0-20 3-24 9-8 10-9 20-3 29 8 10 22 15 36 11l1 3c-15 5-31-1-39-12-7-10-7-22 2-33 5-7 15-11 26-11l1 0z m36 11c7 9 18 13 29 10l3-1 3 11-4 1c-15 4-30-1-40-14-5-6-16-11-27-11-10 1-17 4-22 9-6 8-7 16-1 24 6 9 19 13 31 10l4-1 3 10-4 1c-17 5-34-1-44-14-8-12-7-25 3-37 6-8 17-12 29-13l1 0c14 0 28 6 36 15z m39 6l1 3c-5 3-8 7-8 10-1 3 2 6 2 6l-2 2c0 0-4-3-4-8 1-5 4-9 11-13m7 4l-4 2c-6 4-6 7-6 7-1 2 1 3 1 3l3 2-8 9-3-3c0 0-5-5-4-11 0-6 4-11 12-16l3-2z m-56 8c2 0 5 1 8 2l-2 3c-5-2-11-2-15 2-3 3-3 7-1 12l-3 2c-3-7-2-12 2-16 3-3 7-5 11-5m9-1l4 1-5 10-4-1c-3-2-8-2-10 1-2 1-2 4 0 8l2 3-10 5-2-4c-4-7-3-15 2-20 4-3 9-5 14-5 3 0 6 0 9 2z m-44-9c2 6 5 11 10 13 4 2 9 3 14 1l1 4c-6 1-12 1-17-2-5-3-9-8-11-16z m4-1c1 5 4 9 8 11 3 2 7 2 11 1l3-1 4 10-4 1c-7 2-14 2-20-2-6-3-11-9-13-17l-1-4 11-3z m-12 32c7 7 4 20 4 21l-3-1c0 0 3-12-4-17z m2-3c9 8 6 23 6 25l-1 3-11-2 1-4c1-2 2-10-2-13l-3-3 7-8z m27 21l3 2c-14 21-30 18-44 12l1-3c16 7 28 7 40-11m9 1l-3 3c-16 24-34 20-49 14l-3-2 4-10 4 2c14 6 24 6 35-10l2-3z m-13 5l4 0c-1 2 0 4 2 6 3 2 9 3 13 1l1 4c-5 1-12 0-16-3-3-2-4-5-4-8m8-4l-1 4c0 1 1 2 2 3 1 1 5 2 9 1l4-1 3 10-4 1c-7 2-14 1-19-3-4-2-6-7-6-12l1-3z m-32 13l0 3c0 0-3 1-5 3-1 2-2 4-1 7l-4 0c0-3 0-7 2-9 3-4 8-4 8-4m4 6l-3 1c-1 0-2 0-3 1-1 1-1 3 0 4l0 4-11 2 0-4c-1-5 0-9 2-12 4-5 10-6 11-6l3 0z m-20-29l2 3c-7 3-9 7-9 9-1 3 0 6 1 7l-3 2c-2-2-3-6-2-9 1-4 4-8 11-12m7 5l-4 2c-4 1-6 4-7 6 0 2 0 3 1 3l3 3-9 8-2-3c-3-4-5-9-4-13 1-4 5-10 14-14l3-2z m-35-34l3 0c-3 32 8 34 18 35l-1 4c-12-2-23-7-20-39m7-3l0 4c-3 28 6 29 14 31l4 0-2 11-4-1c-14-2-26-9-23-42l0-4z m-16 18c4 0 9 2 13 5l-3 3c-4-4-9-6-12-5-3 2-5 5-6 10l-3 0c1-8 5-12 8-13 1 0 2 0 3 0m15 3l3 2-7 8-3-2c-4-3-8-4-9-4-1 1-3 3-3 7l-1 4-11-2 1-3c1-11 6-15 10-16 2-1 4-1 5-1 5 0 10 2 15 7z"/>
<glyph glyph-name="menu-engranaje" unicode="&#102;" d="M301 157c-3 0-5 2-6 4l-1 10c-1 1-3 1-4 2l-8-6c-2-2-5-2-6 0l-9 8c-1 2-2 5 0 7l6 8c0 0-1 1-1 1 0 1-1 2-1 3l-10 1c-2 0-4 2-4 5l0 11c0 3 2 5 4 6l10 1c0 1 1 3 2 4l-7 8c-1 2-1 5 1 6l8 9c2 2 5 2 7 0l8-6c0 0 1 1 1 1 1 0 2 0 2 1l2 10c0 2 2 4 5 4l11 0c0 0 0 0 0 0 3 0 5-2 5-4l2-10c1-1 3-1 4-2l8 7c2 1 5 1 6-1l9-8c1-2 2-5 0-7l-6-8c0 0 1-1 1-1 0-1 0-2 1-3l10-1c2 0 4-2 4-5l0-11c0-3-2-5-4-6l-10-1c-1-1-1-3-2-4l6-8c2-2 2-5 0-6l-8-9c-2-1-5-2-7 0l-8 6c0-1-1-1-2-1 0 0-1-1-2-1l-1-10c0-2-2-4-5-4l-11 0c0 0 0 0 0 0z m-11 27c1 0 1 0 2-1 3-1 5-2 8-3 2 0 3-2 4-4l1-9 3 0 1 9c0 2 1 3 3 4 2 1 3 1 4 2 2 0 3 1 4 1 2 1 4 1 6 0l7-5 2 2-6 7c-1 1-1 4 0 5 1 3 2 5 3 8 0 2 2 3 4 4l9 1 0 3-9 1c-2 0-4 2-4 4 0 1-1 2-1 3-1 2-2 3-2 4-1 2-1 4 0 5l5 8-1 2-7-6c-2-1-4-1-6 0-3 1-5 2-8 3-2 0-3 2-4 4l-1 9-3 0-1-9c0-2-1-4-4-4-1 0-2-1-3-1-2-1-3-2-4-2-2-1-4-1-6 0l-7 5-2-2 6-7c1-1 1-4 0-5-1-3-2-5-3-8 0-2-2-4-4-4l-9-1 0-3 9-1c1 0 3-1 3-2 1 0 1-1 1-1 0-2 1-3 1-4 1-2 2-3 2-4 1-2 1-4 0-6l-5-7 2-2 6 6c1 1 2 1 4 1z m16 5c-2 0-4 0-6 1-9 4-13 14-10 22 4 9 14 13 22 10 5-2 8-5 10-9 2-4 2-9 0-13-3-7-9-11-16-11z m-3 11c4-2 8 0 9 3 1 2 1 4 0 6 0 1-2 3-3 3-4 2-8 0-9-3-2-4 0-8 3-9z m-61 21c-2 0-4 1-5 2l-8 14c-2 0-5 0-7 0l-8-13c-2-3-4-3-7-2l-15 6c-2 1-3 3-3 6l4 15c-2 2-4 4-5 6l-15-4c-3-1-5 0-6 3l-6 15c-1 2 0 5 2 6l13 8c0 1 0 2 0 3 0 2 0 3 0 5l-13 7c-2 2-3 4-2 7l6 15c1 2 4 3 6 3l15-4c2 2 4 4 6 5l-4 15c-1 3 1 5 3 6l15 6c2 1 5 0 6-2l8-13c3 0 5 0 8 0l8 13c1 2 4 3 6 2l15-6c2-1 4-4 3-6l-4-15c2-2 4-4 6-6l15 4c2 1 5-1 6-3l6-15c1-2 0-5-2-6l-14-8c0-1 1-3 1-4 0-1-1-3-1-4l14-8c2-1 3-4 2-6l-7-15c-1-2-3-4-6-3l-15 4c-1-2-3-4-5-6l4-14c0-3-1-6-3-6l-15-7c-1 0-2 0-2 0z m-10 26c2 0 3 0 4-2l8-12 6 2-3 14c-1 2 0 4 2 6 3 2 6 5 8 8 1 1 4 2 6 2l14-4 2 7-12 7c-2 1-3 3-2 5 0 2 0 4 0 6 0 2 0 4 0 6-1 2 0 4 2 5l13 8-3 6-14-3c-2-1-4 0-5 2-3 3-6 6-9 8-2 1-2 4-2 6l4 13-7 3-7-12c-1-2-3-3-5-3-4 1-8 1-12 0-2 0-4 1-5 3l-7 12-7-2 4-14c0-2-1-5-2-6-4-2-7-5-9-8-1-2-3-3-5-2l-14 4-3-7 12-7c2-1 3-3 3-5 0 0 0 0 0 0 0-2-1-4-1-7 0-2 0-3 1-5 0-2-1-4-3-5l-12-8 3-6 13 3c2 1 5 0 6-2 2-3 5-6 8-8 2-1 2-3 2-5l-4-14 7-3 7 12c2 2 4 3 6 2 4 0 8 0 11 0 0 0 1 0 1 0z m-6 14c-7 0-13 3-18 8-5 4-7 11-7 17 0 7 2 13 7 18 5 5 11 8 18 8 6 0 13-3 18-8 4-5 7-11 7-18 0-6-3-13-7-17-5-5-12-8-18-8z m0 40c-4 0-8-1-11-4-3-3-4-7-4-11 0-4 1-7 4-10 6-6 15-6 21 0 3 3 5 6 5 10 0 4-2 8-5 11-3 3-6 4-10 4z"/>
<glyph glyph-name="menu-diana" unicode="&#103;" d="M256 274c-5-1-9-6-8-12 1-5 6-9 11-8 6 1 10 6 9 12-1 5-6 9-12 8z m38-4c-1 9-6 18-14 24-8 6-18 8-28 6-10-1-18-6-24-14-6-8-8-18-7-28 3-18 19-31 37-31 2 0 4 0 6 0 20 4 34 23 30 43z m-33-28c-12-2-23 7-25 18-1 6 1 12 4 17 3 5 9 8 14 9 1 0 3 0 4 0 4 0 9-2 13-4 4-4 8-9 8-15 2-12-6-23-18-25z m67-52l-22 27c11 13 19 29 19 47 0 37-30 67-67 67-37 0-67-30-67-67 0-18 7-34 19-46l-22-28c-3-3-2-8 1-11 2-1 3-1 5-1 2 0 4 1 6 3l22 27c10-7 23-11 36-11 13 0 26 4 36 11l22-27c1-2 4-3 6-3 1 0 3 0 5 1 3 3 3 8 1 11z m-70 22c-29 0-52 23-52 52 0 28 23 52 52 52 28 0 52-24 52-52 0-29-24-52-52-52z"/>
<glyph glyph-name="menu-farmaco" unicode="&#104;" d="M305 314c-16 16-42 15-58-1l-28-29c0 0 0-1-1-1 0 0-1-1-1-1l-28-29c-7-8-11-18-11-29 0-11 5-21 12-29l2-2c7-6 17-10 27-10 0 0 0 0 1 0 10 0 19 4 26 12l30 30c0 1 1 1 1 2 0 0 1 0 1 1l28 29c16 16 15 42-1 57z m-66-112c-5-6-12-9-20-9-7 0-14 3-20 8l-2 1c-5 6-9 14-9 22 0 8 3 16 9 22l24 26 45-43z m60 62l-25-26-44 42 24 26c6 6 14 9 22 9 8 1 16-2 22-8 12-12 12-31 1-43z m-31 35l-16-18c-2-2-1-6 1-7 1-1 2-2 3-2 2 0 3 1 4 2l16 18c2 2 1 5-1 7-2 2-5 2-7 0z"/>
<glyph glyph-name="menu-escudo" unicode="&#105;" d="M314 301c-26 5-41 22-47 32-2 3-6 5-9 5-4 0-7-2-9-5-7-10-21-27-47-32-5-2-9-6-9-11l0-54c0-1 1-2 1-3 2-5 12-35 59-61 1-1 3-1 5-1 2 0 4 0 5 1 46 26 57 56 59 61 0 1 0 2 0 3l0 54c0 5-3 9-8 11z m-5-64c-1-4-11-29-51-53-40 24-50 49-51 53l0 51c26 6 43 23 51 35 8-12 24-29 51-35z m-67 17c-3 3-7 3-10 1-2-3-3-7 0-10l13-15c2-3 5-4 8-4l0 0c3 0 6 1 8 4l32 36c2 2 2 6-1 9-2 2-7 2-9-1l-30-33z"/>
<glyph glyph-name="menu-hoja" unicode="&#106;" d="M313 165l-110 0c-8 0-15 7-15 15l0 148c0 8 7 15 15 15l89 0c2 0 4-1 5-2l29-30c1-1 2-3 2-5l0-126c0-8-7-15-15-15z m-110 165c-1 0-2-1-2-2l0-148c0-1 1-2 2-2l110 0c1 0 2 1 2 2l0 120-23 0c-3 0-6 3-6 6l0 24-83 0z m96-17l7 0-7 8z m-29-114l-55 0c-4 0-6 3-6 7 0 3 2 6 6 6l55 0c3 0 6-3 6-6 0-4-3-7-6-7z m9 23l-64 0c-4 0-6 3-6 7 0 3 2 6 6 6l64 0c3 0 6-3 6-6 0-4-3-7-6-7z m-21 23l-43 0c-4 0-6 3-6 6 0 4 2 7 6 7l43 0c3 0 6-3 6-7 0-3-3-6-6-6z m21 23l-64 0c-4 0-6 2-6 6 0 4 2 6 6 6l64 0c3 0 6-2 6-6 0-4-3-6-6-6z m-9 22l-55 0c-4 0-6 3-6 7 0 3 2 6 6 6l55 0c3 0 6-3 6-6 0-4-3-7-6-7z"/>
<glyph glyph-name="menuap-08" unicode="&#107;" d="M328 305c-15 22-38 33-69 33l-2 0c-30 0-54-12-69-34-25-36-20-90-14-106 8-21 39-26 52-27l9 1 0 1c0 0 0 0 0 0l0 1c1 0 1 1 1 1 0 2 1 4 1 6 6-4 13-5 19-5l2 0c6 0 13 1 19 5 0-1 0-1 0-2l1-3c0-1 0-1 0-2 0 0 0 0 0 0l0-1c1 0 1 0 1 0l0-1 0 0c1-1 3-1 5-1 1 0 3 0 4 0 13 1 46 6 54 27 6 16 11 71-14 107z m-115-75l0 5-5-1c-1 0-4 2-5 6-2 5-2 8-1 9 1 0 2-1 3-2l10-14-2 17-1 0 1 0c0 1-2 24 3 40 8-10 19-16 45-17 24 0 40-2 40-13l0-24 8 11c1 2 2 2 3 2 0-1 1-4-1-9-2-4-4-6-5-6l-5 1-1-5c-2-23-23-45-42-45l-2 0c-7 0-15 3-23 10 0 0 0 0-1 1-11 9-18 21-19 34z m75-42c11 10 19 24 21 37 4 1 8 6 11 12 3 9 1 18-5 21-1 1-3 1-5 0l0 2c0 21-26 22-48 23-29 0-36 7-43 18l-4 6-4-6c-7-12-8-31-8-43-1 1-3 0-5 0-6-3-8-12-4-21 2-6 6-11 11-12 2-13 10-27 21-37 1-1 2-4 1-8-10 1-39 5-45 21-5 14-9 65 14 98 13 19 34 29 62 29l1 0c28 0 48-9 62-29 22-32 18-83 12-98-6-17-36-20-47-21 0 4 1 7 2 8z"/>
<glyph glyph-name="menuap-07" unicode="&#108;" d="M320 310c0 1 0 3 0 6 0 5 1 10 1 10 1 0 1 1 1 2 0 5-4 10-10 11l-107 0c-10 0-18-9-18-20l0-124c0-1 0-7 2-10 5-14 15-15 16-15l114 0c5 0 10 5 10 11l0 118c0 5-4 10-9 11z m-108-11l0-119-7 0c0 0-5 2-8 9 0 1 0 4-1 7l0 106c3-2 6-3 9-3z m98 11l-105 0c-5 0-9 4-9 9 0 5 4 9 9 9l106 0c0 0 1 0 1 0-1-2-2-7-2-12 0-2 0-4 0-6z m-89-11l95 0c1 0 1 0 1 0l2 0c0 0 0 0 0 0l0-117c0-1 0-2 0-2l-98 0z"/>
<glyph glyph-name="menuap-09" unicode="&#109;" d="M242 166c-3 0-6 1-8 4l-11 17-19-7c-3-2-6-1-9 1-3 2-4 6-3 9l21 62c0 0-1 0-1 0 0 0-1 0-1 0-6 0-11 3-13 9-2 6 0 13 5 16 2 1 2 3 2 4 0 0 0 2-2 3-5 3-7 10-5 16 2 6 7 10 14 10 0 0 0 0 0 0 1 0 2 1 3 1 0 1 1 2 0 4-2 6 0 12 5 16 5 4 12 3 17 0 1-1 3-1 3-1 2 0 3 1 3 3 2 6 7 10 13 10 0 0 0 0 0 0 7 0 12-4 14-10 0-2 1-3 2-3 1 0 2 0 4 1 5 4 12 4 17 0 5-4 7-10 5-16-1-2 0-3 0-4 1 0 2-2 3-1 7 0 12-4 14-10 2-6 0-12-5-16-2-1-2-3-2-3 0-1 0-2 2-3 5-4 7-10 5-16-2-6-7-10-13-10l21-62c2-3 0-7-2-9-3-2-7-2-10-1l-19 8-12-17c-1-2-4-4-8-3-3 0-6 2-7 6l-9 25-6-27c-1-4-4-6-7-6 0 0-1 0-1 0z m1 10z m32 0l0 0c0 0 0 0 0 0z m-3 1c0 0 0 0 0 0z m-45 22l14-21 9 42c-3 2-6 5-7 9 0 1-1 2-2 2-1 1-2 1-4 0-5-4-11-4-17-1-1 1-2 2-3 3l-14-43z m34 20l13-40 15 21 23-9-15 44c-1-2-3-3-4-4-5-4-12-4-17 0-1 1-3 1-3 0-2 0-3-1-3-2-1-5-5-8-9-10z m-61-30c0 0 0 0 0 0z m115 0z m-75 53c1 0 2 0 4-1 4-1 8-5 9-9 1-3 3-3 4-3 0 0 3 0 3 3 2 4 5 8 9 9 5 2 10 1 13-2 2-2 4-1 5 0 0 0 2 2 1 4-1 5-1 10 2 13 3 4 7 6 12 6 0 0 0 0 0 0 2 0 3 2 4 3 0 1 0 3-2 4-4 3-6 7-6 12 0 5 2 9 6 12 2 1 2 3 1 4 0 1-1 3-3 3 0 0-1 0-1 0-4 0-8 2-11 5-3 4-4 9-2 13 1 3-1 4-1 5-1 0-3 1-5 0-4-3-8-4-13-3-4 2-8 5-9 10-1 2-3 3-4 2 0 0-2 0-3-2-2-5-5-8-9-10-5-1-10 0-13 2-2 2-4 1-5 1 0-1-2-2-1-5 1-4 1-9-2-13-3-4-7-6-12-6 0 0 0 0 0 0-2 0-3-2-3-2-1-1-1-3 1-5 4-2 6-7 6-11 0-5-2-9-6-12-2-2-2-4-1-5 0 0 1-2 3-2 0 0 1 0 1 0 4 0 8-2 11-6 3-4 4-9 2-13-1-3 1-4 1-4 1-1 3-2 5 0 2 2 5 3 9 3z m17 10c-4 0-7 1-10 2-15 5-23 22-17 36 2 8 8 13 14 17 7 3 15 3 22 1 15-6 23-22 17-37-2-7-7-13-14-16-4-2-8-3-12-3z m0 47c-3 0-6 0-8-2-5-2-8-5-10-10-3-10 2-20 11-24 5-1 10-1 14 1 5 2 8 6 10 10 3 10-2 21-11 24-2 1-4 1-6 1z"/>
<glyph glyph-name="menuap-10" unicode="&#110;" d="M278 275c2 0 3 2 3 3 0 2-1 3-3 3-1 0-3-1-3-3 0-1 2-3 3-3z m0-36c-1 0-3-1-3-3 0-1 2-3 3-3 2 0 3 1 3 3 0 2-1 3-3 3z m74 74c2 0 3 1 3 3l0 6c0 5-4 9-9 9l-136 0c-4 0-9-4-9-9l0-6c0-2 2-3 3-3l4 0 0-93-4 0c-1 0-3-1-3-3l0-6c0-5 5-9 9-9l65 0 0-7c-3-1-6-5-6-9 0-5 4-9 9-9 5 0 9 4 9 9 0 4-2 8-6 9l0 7 65 0c5 0 9 4 9 9l0 6c0 2-1 3-3 3l-3 0 0 93z m-74-130c-1 0-3 2-3 3 0 2 2 3 3 3 2 0 3-1 3-3 0-1-1-3-3-3z m71 28c0-1-1-3-3-3l-136 0c-1 0-3 2-3 3l0 3 142 0z m-135 9l0 93 129 0 0-93z m-6 99l0 3c0 2 1 3 3 3l135 0c2 0 3-1 3-3l0-3z m21-50l30 0c2 0 3 2 3 3l0 7c0 2-1 3-3 3-1 0-3-1-3-3l0-4-24 0 0 25 16 0c2 0 3 1 3 3 0 2-1 3-3 3l-19 0c-1 0-3-1-3-3l0-31c0-1 2-3 3-3z m15 24c-1 1-3 2-5 0-1-1-1-3 0-4l6-7c1 0 1-1 2-1l0 0c1 0 2 1 3 1l12 13c1 1 1 3-1 4-1 1-3 1-4 0l-10-10z m15-53c-1 0-3-1-3-3l0-4-24 0 0 24 16 0c2 0 3 2 3 3 0 2-1 3-3 3l-19 0c-1 0-3-1-3-3l0-30c0-1 2-3 3-3l30 0c2 0 3 2 3 3l0 7c0 2-1 3-3 3z m-2 16l-10-10-3 4c-2 2-4 2-5 0-1-1-1-3 0-4l6-6c1 0 2-1 2-1 1 0 2 1 2 1l12 12c2 1 2 3 0 4-1 2-3 2-4 0z m71 44l-50 0c-1 0-3-1-3-3 0-2 2-3 3-3l50 0c2 0 3 1 3 3 0 2-1 3-3 3z m0-19l-38 0c-1 0-3-1-3-3 0-1 2-3 3-3l38 0c2 0 3 2 3 3 0 2-1 3-3 3z m0-24l-50 0c-1 0-3-1-3-3 0-1 2-3 3-3l50 0c2 0 3 2 3 3 0 2-1 3-3 3z m0-18l-38 0c-1 0-3-1-3-3 0-1 2-3 3-3l38 0c2 0 3 1 3 3 0 2-1 3-3 3z"/>
</font></defs></svg>
