<?xml version="1.0" standalone="no"?>
<!DOCTYPE svg PUBLIC "-//W3C//DTD SVG 1.1//EN" "http://www.w3.org/Graphics/SVG/1.1/DTD/svg11.dtd">
<svg xmlns="http://www.w3.org/2000/svg">
<metadata>Generated by Fontastic.me</metadata>
<defs>
<font id="untitled-font-2" horiz-adv-x="512">
<font-face font-family="untitled-font-2" units-per-em="512" ascent="480" descent="-32"/>
<missing-glyph horiz-adv-x="512" />

<glyph glyph-name="tdm" unicode="&#97;" d="M447 300c-3 4-8 7-13 10-3 15-16 31-36 45-19 13-42 21-65 23-10 14-29 25-49 28-22 3-43-2-61-15-15 7-31 9-47 6-14-3-34-13-48-43-36-4-58-18-71-31-17-19-25-44-22-69 3-26 13-45 31-59 19-14 46-22 80-22 10 0 21 1 33 2 1-1 1-1 1-2 13-16 35-26 62-26l2 0c3 0 5 0 8 0 19-29 68-60 75-65l6-4 11 16c1-1 3-1 4-2l7-3 11 20-8 5c-8 4-15 8-20 13 12 1 29 3 40 13 5 4 7 9 8 16 18 1 34 6 46 15 18 13 28 33 27 57 0 3 0 4 0 6 8 21 3 49-12 66z m-10-75c1-16-4-29-17-38-4-3-10-5-15-7l12 17-8 4c-13 8-14 14-14 16 0 3 2 5 2 5l6 5-16 18-5-4c-3-3-9-9-10-18-27 2-53-9-71-30-12-14-35-23-59-23-19 0-35 6-44 17-14 18-15 35-4 51 3 4 7 9 12 12l0-1 4 4c14 9 32 11 50 6l2-1c-2-6-3-12-3-18-8 0-15-2-22-6-13-8-23-21-28-38l-2-8 22-5 3 8c3 10 8 19 16 23 6 4 14 5 23 3 6-6 16-9 26-9 6 0 13 1 19 4l8 3-10 21-8-3c-7-4-16-2-21 2l0 3c-2 3-2 9 1 15l3 8-17 9 3 10-8 3c-14 4-28 4-41 2 1 10-1 19-1 22l-2 8-23-5 2-8c2-5 4-23-4-28-9-6-16-12-22-21-11-16-14-35-8-54-40-3-69 2-87 16-13 10-19 24-21 45-3 17 4 35 17 50 8 8 22 18 43 21-1-2-1-5-2-7l-1-8 23-4 1 7c1 5 2 9 3 13l1 0 0 2c8 23 21 38 38 43 18 4 38-5 52-21l5-6 19 14-6 6c-2 3-5 6-7 9 14 7 27 8 37 6 7-1 14-3 20-7-5-1-11-2-16-5l-8-3 9-22 7 4c30 11 64 6 92-13 10-7 18-14 22-21-4 0-9-1-12-2l-7-2 6-23 8 2c13 4 22 1 30-6 3-3 5-8 6-12-1 1-2 2-3 2-20 13-50 14-70 12-3 1-7 3-8 5-1 4 1 10 8 17l5 6-17 15-5-5c-17-17-16-32-12-40 0-1 1-2 1-2-11-1-22 4-26 7l-7 5-13-20 7-4c18-12 39-15 56-9 2 1 5 2 11 2l1 0 8-1 0 2c15 1 34 0 48-8 8-6 13-12 15-22l-1-2 1 0c-3-6-3-8-2-10z m-114-77c1 5 7 8 8 9l8 3-10 21-8-3c-2-2-3-3-4-3 1 1 1 1 2 3 15 18 38 26 61 20 4-5 10-11 17-15l6-3c-18-6-36-4-44-1l-7 3-9-22 8-3c3-1 7-2 12-3-8-5-26-7-40-6z m-45 4c11 3 20 7 28 14-4-6-6-12-6-19 0-4 1-9 2-14l-1-3 3-1c1-1 2-3 3-4-10 8-22 18-29 27z m-1 162c0 1 1 1 2 2 4 3 12 4 21 2l7-2 8 22-9 3c-15 4-30 2-41-5-1-2-3-3-4-5-17 13-35 16-51 14-1 0-3 1-4 2-1 3-1 6-1 8l1 8-23 4-1-8c-2-9 0-17 2-21-2-1-3-1-5-2l-8-4 10-20 7 3c8 3 14 5 21 8l8-2 0 3c12 1 24-4 35-16l0-5 5 0c2-2 4-5 6-9l4-6 20 13-4 5c-2 2-4 6-6 8z m-109-6c-1 4 0 6 1 7l5 6-17 16-5-6c-6-6-9-16-7-25-15-4-28-14-33-34-7-5-12-6-16-6-3 1-5 7-6 14l-1 8-23-3 1-8c3-22 14-30 22-33 3-2 6-3 11-3 3 0 5 0 8 1 0-7 0-16 1-24l1-8 24 2-1 8c-1 16-1 28 0 37l3 2-3 4c5 16 13 21 24 23 4-5 10-8 17-12l8-3 10 21-9 3c-9 4-14 8-15 13z"/>
<glyph glyph-name="eficacia" unicode="&#98;" d="M160 283c0 60 49 109 110 109 60 0 109-49 109-109 0-61-49-110-109-110-61 0-110 49-110 110m257-156l-47 58c25 25 40 60 40 99 0 77-63 140-140 140-78 0-141-63-141-140 0-38 15-73 40-98l-47-58c-5-7-4-18 3-23 3-2 6-3 9-3 5 0 10 2 12 6l47 58c21-14 48-23 77-23 28 0 54 9 76 23l47-58c3-4 7-6 12-6 3 0 6 1 9 3 7 4 8 14 3 22m-141 110c-25-4-49 13-53 39-2 12 1 25 9 35 7 9 18 16 30 18 2 0 5 1 8 1 9 0 19-3 27-9 9-7 16-18 18-30 3-27-13-51-39-54m70 57c-3 21-14 39-31 51-17 12-38 18-58 14-21-3-39-14-51-31-12-17-18-38-14-58 6-38 39-66 76-66 5 0 9 0 12 1 44 7 73 47 66 89m-98-15c-2 12 6 23 17 25 12 2 23-6 25-18 2-12-6-23-17-25-12-2-23 6-25 18"/>
<glyph glyph-name="sintomas" unicode="&#99;" d="M276 86l-41 0c-13 0-24 10-24 23l0 4-3 0c-6 0-11 4-11 10l0 43c0 16-11 35-23 55-15 26-32 56-32 91 0 62 51 114 113 114 63 0 114-50 114-114 0-35-17-64-32-91-12-21-23-39-23-55l0-43c0-5-4-10-11-10l-3 0 0-4c1-13-10-23-24-23z m-44 28l0-4c0-2 1-3 3-3l41 0c2 0 3 1 3 3l0 4z m58 20l3 0 0 32c0 1 0 2 0 3l-75 0c0-1 0-2 0-3l0-32z m-77 55l85 0c4 15 13 28 20 42 14 24 29 52 29 80 0 52-42 94-93 94-50 0-93-42-93-94 0-30 15-56 30-80 9-14 18-27 22-42z m8 49c-3 0-8 2-9 6l-4 7c-12 20-25 42-25 61 0 38 28 68 65 72 5 1 11-3 11-10 1-5-4-10-9-10-27-4-45-25-45-52 0-13 13-35 21-50l5-8c3-5 1-10-5-14-1-1-3-2-5-2z"/>
<glyph glyph-name="cognitivos" unicode="&#100;" d="M255 197c-17 0-30 14-30 30 0 18 14 31 30 31 17 0 31-14 31-31 1-17-13-30-31-30z m0 39c-4 0-8-4-8-9 0-4 4-8 8-8 5 0 9 4 9 8 0 5-3 9-9 9z m0-71c-42 0-75 33-75 75 0 41 34 76 75 76 42 0 76-33 76-76 1-42-33-75-76-75z m0 127c-30 0-54-24-54-53 0-29 24-53 54-53 31 0 55 24 55 53 0 29-24 53-55 53z m0-158c-60 0-110 51-110 114 0 63 50 113 110 113 61 0 111-50 111-113 0-63-50-114-111-114z m0 205c-48 0-87-41-87-92 0-51 39-92 87-92 49 0 88 41 88 92 0 51-39 92-88 92z m0-238c-82 0-149 69-149 154 0 86 67 155 149 155 83 0 150-69 150-155 0-85-66-154-150-154z m0 288c-70 0-127-60-127-134 0-73 57-133 127-133 71 0 128 60 128 133 0 74-57 134-128 134z"/>
<glyph glyph-name="mecanismo" unicode="&#101;" d="M331 82c-5 0-8 4-10 9l-3 17c-2 1-4 1-5 2l-13-10c-5-4-10-4-13 1l-14 14c-3 3-5 8-1 13l11 14c0 1-2 2-2 2 0 1-1 2-1 3l-17 2c-5 2-9 5-9 10l0 21c0 5 4 9 9 9l17 3c1 2 1 4 3 6l-11 14c-4 5-4 10 1 13l14 14c3 3 8 5 13 1l14-11c1 0 2 2 2 2 1 0 2 1 3 1l2 17c2 5 5 9 10 9l21 0c5 0 8-4 9-9l3-17c2-1 4-1 5-3l14 11c4 4 10 4 13-1l14-14c3-3 4-8 1-13l-11-14c0-1 2-1 2-2 0-1 1-2 1-3l17-2c5-2 9-5 9-10l0-21c0-5-4-8-9-9l-16-3c-1-2-1-4-2-5l10-14c4-4 2-10-1-13l-14-14c-3-3-8-4-13-1l-14 11c-1 0-1-2-2-2-1 0-2-1-3-1l-2-17c-2-5-5-9-10-9z m-19 50c2 0 3 0 5-1 4-2 9-4 13-5 4-1 7-5 8-8l2-15 3 0 2 15c0 3 3 7 7 8 3 1 5 1 7 2 2 1 5 2 6 3 3 2 7 2 11 0l11-9 3 3-9 11c-2 4-3 8-1 11 2 5 4 9 5 13 1 5 5 7 9 8l15 2 0 3-15 2c-4 0-8 4-9 8-1 2-1 4-2 6-1 3-2 5-3 6-2 3-2 7 0 11l9 12-2 2-11-9c-4-2-8-3-11-1-5 2-9 4-13 5-5 2-7 5-8 9l-2 15-3 0-2-15c0-4-4-7-8-9-2 0-4-1-6-2-3-1-5-2-6-3-3-2-7-2-11 0l-13 10-2-2 9-12c2-4 3-8 1-11-2-4-4-9-6-13-1-4-4-7-8-8l-15-2 0-3 15-2c3 0 5-2 7-5 1-1 1-2 1-3 0-2 2-4 3-6 1-2 2-5 3-6 2-3 2-7 0-11l-9-11 2-3 12 9c1 1 4 1 6 1z m29 8c-4 0-8 1-12 2-8 3-14 9-17 16-4 8-4 16 0 24 6 16 25 24 41 17 16-6 24-25 17-41-5-11-17-18-29-18z m-4 20c5-2 11 0 15 7 2 5 0 12-7 15-5 2-12 0-15-7-1-3-1-5 0-8 1-3 4-6 7-7z m-110 36c-3 0-6 2-8 4l-14 23c-5 0-9 0-13 0l-14-23c-3-4-8-6-12-4l-26 11c-5 2-7 6-6 12l7 26c-3 3-7 6-9 9l-26-6c-4-1-10 1-12 5l-11 26c-2 5 0 10 5 12l22 15c0 2 0 5 0 6 0 2 0 5 0 7l-22 13c-5 2-7 8-5 13l11 26c2 5 7 8 12 6l26-7c3 3 7 7 10 10l-7 26c-1 4 1 10 6 12l26 11c4 2 9 0 12-5l13-22c4 0 8 0 13 0l15 22c2 5 7 7 12 5l26-11c5-4 7-8 6-13l-6-26c3-3 6-7 9-10l26 7c5 1 10-2 12-6l11-26c2-4 0-10-4-12l-23-14c0-2 0-4 0-5 0-2 0-5 0-7l23-14c4-2 6-7 4-12l-11-26c-2-4-6-6-12-5l-26 6c-3-3-5-6-8-8l4-27c1-5-1-10-5-12l-26-11c-3-1-4-1-5-1z m-17 49c3 0 7-3 9-5l13-21 10 4-6 24c-1 4 0 8 4 11 6 4 11 8 15 14 3 3 7 4 11 3l24-7 4 11-20 12c-3 2-6 7-4 10 1 3 1 6 1 11 0 3 0 6-1 9-2 5 1 8 4 10l21 13-4 11-26-5c-4-2-8 0-11 4-4 5-8 11-15 15-3 2-4 7-3 11l6 24-10 4-12-23c-2-3-7-5-10-4-6 1-14 1-21 0-4-1-7 1-9 4l-12 22-11-4 7-24c1-5 0-9-5-11-5-4-11-9-15-15-2-3-6-5-11-3l-24 6-4-10 21-12c3-2 5-5 5-8 0-1 0-1 0-2-1-4-1-8-1-11 0-3 0-7 1-10 1-4-1-8-4-10l-22-13 4-9 24 6c5 1 9 0 11-4 4-6 9-11 14-15 3-3 4-7 3-11l-6-24 11-4 13 20c2 3 6 6 9 5 7-2 14-2 22 1-1 0 0 0 0 0z m-11 22c-12 0-23 5-32 13-9 9-13 20-13 33 0 12 4 24 13 32 8 9 19 13 32 13 12 0 24-4 33-13 8-8 13-19 13-32 0-12-5-24-13-33-10-8-21-13-33-13z m-18 27c10-9 26-9 36 0 4 5 7 11 7 19 0 6-2 13-7 18-10 10-26 10-36 0-5-4-8-11-8-18 0-8 3-13 8-19z"/>
<glyph glyph-name="tolerabilidad" unicode="&#102;" d="M151 217z m216 0z m-216-2c3-8 22-61 108-110 85 49 105 102 108 110l0 109c-56 13-91 48-108 73-18-24-52-59-108-73 0 0 0-109 0-109z m108-139c-5 0-8 1-12 3-98 55-120 118-124 130-1 1-1 4-1 6l0 113c0 11 8 20 19 23 54 12 85 47 98 68 5 6 12 10 20 10 7 0 15-5 19-10 14-21 45-56 99-68 10-3 18-12 18-23l0-113c0-2 0-4-1-6-3-12-26-74-123-130-5-2-9-3-12-3m-10 117c-7 0-12 3-16 7l-28 34c-6 5-5 15 1 19 5 6 15 5 19-1l24-28 63 70c5 6 14 7 19 1 6-5 7-14 1-19l-68-76c-3-4-10-7-15-7"/>
<glyph glyph-name="neurologia" unicode="&#103;" d="M389 272c-2 8-3 18-5 28-1 2-1 5-2 10-1 6-2 14-3 19 0 1-1 2-1 3-2 8-4 13-6 18-6 13-14 23-24 33-12 12-28 21-45 26-14 4-29 7-48 7-120 0-127-93-130-139l0-4c-9-5-15-14-15-24 0-10 6-18 15-23 1-2 1-5 1-7 0-2 0-5 0-5 1-6 2-14 4-20 4-18 12-33 21-46 11-16 27-30 44-39 12-5 25-9 38-11 7-2 15-3 22-3 26 0 52 8 75 19 16 9 29 24 39 41 8 13 14 29 17 45 1 8 3 17 4 24 9 4 15 13 15 24 0 11-7 20-16 24z m-223-12c0 16 2 32 5 51l1 8 0 1c0 6-2 11-7 16-4 2-6 3-9 4 15 38 48 56 99 56 16 0 35-1 51-9 6-2 11-5 15-10 4-4 7-6 10-8 7-4 11-10 15-16 2-3 4-7 6-10 1-1 1-3 2-5-3-1-7-2-9-5-4-4-7-9-7-15l1-10c3-18 5-34 5-50 0-6 4-10 10-10 9 0 16 2 23 6l1 0c2 0 4-2 4-5 0-3-2-5-4-5-6 0-10-5-10-10-7-107-81-119-113-119-31 0-106 12-112 120 0 5-3 10-9 10-2 0-4 2-4 5 0 3 1 5 3 5 7-4 14-6 23-5 5 0 10 4 10 10z m201 16c0 0 0-1 0-2l0-1c0 0-1-1-2-1-1 13-4 27-6 42l-1 5c1 0 1 1 2 2 3-13 5-26 6-34l0-2c0-4 1-6 1-9z m-223-4l1 4c1 13 2 29 6 44l1-1c1-1 1-1 1-1l-1-5c-3-15-5-29-6-42-1 0-1 1-2 1z m151 16c-17 0-33-12-37-29l-4 0c-4 16-19 29-37 29-20 0-37-15-39-35 0-2 0-5 0-6 1-22 18-38 39-38 17 0 33 12 37 29l4 0c4-16 19-29 37-29 21 0 38 16 39 38 0 2 0 4 0 6-2 20-19 35-39 35z m0-62c-11 0-20 9-20 21 0 12 10 20 20 20 11 0 21-8 21-20 0-12-10-21-21-21z m-78 0c-12 0-21 9-21 21 0 12 10 20 21 20 10 0 20-8 20-20 0-12-10-21-20-21z m85-60c-1 2-3 4-5 5-3 1-6 1-8 0-22-10-44-10-67 0-5 2-12 0-14-5-1-2-1-6 0-8 1-2 3-4 5-5 14-7 28-10 42-10 15 0 29 3 42 9 5 3 7 8 5 14z"/>
<glyph glyph-name="ad" unicode="&#104;" d="M182 72c-24 0-49 9-68 28l-5 5c-42 41-43 106-3 148l71 74c2 1 3 3 4 3 1 1 1 2 3 3l71 74c35 46 101 54 147 18 46-35 54-101 18-147-4-5-9-10-14-15l-71-74c-2-1-3-3-4-3 0-2-1-2-3-4l-76-78c-18-20-43-30-70-30z m7 229l-64-67c-30-32-29-82 2-111l6-4c14-13 32-21 51-19 19 0 37 8 51 22l67 71z m21 22l113-109 80 83c28 34 14 77-20 103-30 24-65 29-94 4z m68-21c-8 0-13 5-13 13 0 3 2 7 3 9l39 46c5 5 13 7 19 2 5-6 6-14 1-19l-39-46c-2-4-6-5-10-5z"/>
<glyph glyph-name="guia" unicode="&#105;" d="M400 410l11 4 0 32-239 0c-24 0-43-20-43-43l0-256c0-24 19-43 43-43l239 0 0 289-11 0c-2 2-5 7-5 9 0 4 2 7 5 8z m-228 1l193 0c-1-3-1-5-1-8 0-4 0-7 1-9l-193 0c-4 0-8 4-8 9 0 4 3 8 8 8z m218-285l-218 0c-12 0-21 9-21 21l0 234c5-5 13-10 21-10l218 0z m-216 221l22 0 0-183-22 0z"/>
<glyph glyph-name="perfiles" unicode="&#106;" d="M332 46c33 3 116 13 135 66 16 42 29 181-34 271-38 55-97 83-173 83l-4 0c-79 0-138-28-176-84-63-91-51-228-37-270 20-52 97-63 132-66l19 1c0 2 0 2 2 3 0 1 1 1 1 3 3 7 3 14 3 21 17-11 35-18 53-18l4 0c19 0 37 7 54 16 0-2 0-6 0-10l1-8c0-1 0-1 2-3 0 0 0-1 0-1 0-1 0-3 1-3 3-2 17-1 17-1m-273 72c-14 38-25 170 34 255 36 51 91 76 162 76l4 0c71 0 124-25 160-76 59-84 47-217 33-256-17-46-101-54-126-55-3 13 2 23 4 26 27 24 48 59 55 94 10 3 21 15 27 29 8 23 4 44-9 50-5 3-10 3-17 0l0 9c0 52-64 54-121 56-75 2-92 19-113 48l-8 11-6-11c-19-31-20-84-19-111-5 1-10 1-14 0-13-7-18-28-9-50 6-16 17-27 27-29 6-36 28-70 56-95 1-4 5-13 2-26-26 3-105 11-122 55m79 126c0 1-8 68 9 109 24-29 50-43 118-44 63-2 104-6 104-39l0-52 16 21c4 5 8 8 11 8 3-2 6-13 0-28-5-12-13-19-17-19l-9 2-1-9c-5-59-63-118-113-118l-4 0c-20 0-42 10-62 26-1 1-1 1-2 3-25 22-46 55-50 89l-1 9-10-2c-4 0-11 6-17 19-5 15-2 26 2 28 2 0 6-3 10-8l18-25z"/>
<glyph glyph-name="mc" unicode="&#107;" d="M225 81c-6 0-12 4-15 9l-23 32-38-14c-5-2-13-2-18 4-5 4-8 10-5 17l41 121c-1 0-1 0-2 0-13 0-24 8-27 20-5 11 0 24 10 31 4 2 4 5 4 6 0 1 0 5-4 7-9 6-14 19-10 31 4 12 14 20 26 20l1 0c3 0 5 2 6 3 1 1 2 3 1 8-4 11 0 24 10 32 10 8 23 8 33 0 4-2 6-1 7-1 2 1 4 2 5 5 4 12 14 21 27 21 12 0 23-8 27-20 2-2 3-4 6-5 1 0 4-1 6 1 9 5 22 5 32-1 9-8 14-21 9-32-1-4 0-7 2-8 1-1 2-3 6-3 13 0 23-8 27-20 4-12 0-25-11-31-3-2-3-6-3-7 0-1 0-4 3-6 10-8 14-20 11-31-4-12-14-20-26-20l43-122c3-8 0-14-5-19-5-4-13-5-20-2l-36 15-24-32c-3-5-10-9-16-8-7 1-12 6-14 12l-18 51-12-54c-2-8-7-12-14-12-1 2-2 2-2 2z m1 20z m63 1z m-5 1z m-89 44l28-41 18 82c-6 4-12 10-14 18-1 2-2 4-5 5-1 0-4 1-7-1-9-8-22-8-33-1-2 1-4 3-6 5l-28-84z m67 39l26-78 30 41 47-19-31 88c-2-4-4-7-7-9-10-8-23-8-34 0-3 2-5 1-6 1-2-1-4-2-6-5-4-9-10-16-19-19z m-120-58z m227 0z m-149 104c3 0 5 0 8-1 9-4 16-10 19-19 1-5 5-5 7-5 1 0 6 0 8 5 2 9 10 16 18 19 9 3 19 1 26-5 5-3 8-1 9 0 1 1 4 3 2 9-3 9-2 18 3 26 6 7 14 12 23 12 5 0 7 4 8 5 0 1 1 6-4 9-7 5-11 14-11 23 0 8 4 17 11 22 5 4 4 8 4 9 0 1-3 5-8 5-10 0-17 5-23 12-5 8-6 18-4 26 2 6-2 8-3 9-1 1-6 3-9 0-7-6-16-8-26-4-8 3-15 9-18 18-1 5-7 5-8 5-1 0-5 0-7-5-3-9-10-16-19-18-8-4-18-2-26 4-4 3-7 1-8 0-1-1-5-3-3-9 4-8 3-18-3-26-5-7-14-12-22-12-6 0-7-4-8-5 0-1-1-5 3-9 8-5 12-14 12-22 0-9-4-18-12-23-4-3-3-8-3-9 0-1 2-5 8-5l1 0c8 0 17-5 22-12 6-8 7-17 5-26-3-6 2-8 3-9 1-1 5-3 9 0 4 3 9 6 16 6z m33 19c-6 0-13 1-19 3-29 11-45 44-34 73 6 14 15 26 29 32 15 7 30 8 44 2 29-10 44-43 33-72-5-14-15-26-29-32-7-4-15-6-24-6z m0 93c-5 0-11-1-15-3-9-4-15-12-18-21-7-18 3-40 21-46 9-3 19-3 27 1 9 4 16 12 19 20 6 19-3 41-22 47-3 2-7 2-12 2z"/>
</font></defs></svg>
